{
  "href": "https://api.spotify.com/v1/artists/5nP8x4uEFjAAmDzwOEc9b8/albums?offset=0&limit=5&locale=en-US,en;q%3D0.9,pt-BR;q%3D0.8,pt;q%3D0.7&include_groups=album,single,compilation,appears_on",
  "limit": 5,
  "next": "https://api.spotify.com/v1/artists/5nP8x4uEFjAAmDzwOEc9b8/albums?offset=5&limit=5&locale=en-US,en;q%3D0.9,pt-BR;q%3D0.8,pt;q%3D0.7&include_groups=album,single,compilation,appears_on",
  "offset": 0,
  "previous": null,
  "total": 65,
  "items": [
      {
          "album_type": "album",
          "total_tracks": 12,
          "available_markets": [
              "AR",
              "AU",
              "AT",
              "BE",
              "BO",
              "BR",
              "BG",
              "CA",
              "CL",
              "CO",
              "CR",
              "CY",
              "CZ",
              "DK",
              "DO",
              "DE",
              "EC",
              "EE",
              "SV",
              "FI",
              "FR",
              "GR",
              "GT",
              "HN",
              "HK",
              "HU",
              "IS",
              "IE",
              "IT",
              "LV",
              "LT",
              "LU",
              "MY",
              "MT",
              "MX",
              "NL",
              "NZ",
              "NI",
              "NO",
              "PA",
              "PY",
              "PE",
              "PH",
              "PL",
              "PT",
              "SG",
              "SK",
              "ES",
              "SE",
              "CH",
              "TW",
              "TR",
              "UY",
              "US",
              "GB",
              "AD",
              "LI",
              "MC",
              "ID",
              "JP",
              "TH",
              "VN",
              "RO",
              "IL",
              "ZA",
              "SA",
              "AE",
              "BH",
              "QA",
              "OM",
              "KW",
              "EG",
              "MA",
              "DZ",
              "TN",
              "LB",
              "JO",
              "PS",
              "IN",
              "KZ",
              "MD",
              "UA",
              "AL",
              "BA",
              "HR",
              "ME",
              "MK",
              "RS",
              "SI",
              "KR",
              "BD",
              "PK",
              "LK",
              "GH",
              "KE",
              "NG",
              "TZ",
              "UG",
              "AG",
              "AM",
              "BS",
              "BB",
              "BZ",
              "BT",
              "BW",
              "BF",
              "CV",
              "CW",
              "DM",
              "FJ",
              "GM",
              "GE",
              "GD",
              "GW",
              "GY",
              "HT",
              "JM",
              "KI",
              "LS",
              "LR",
              "MW",
              "MV",
              "ML",
              "MH",
              "FM",
              "NA",
              "NR",
              "NE",
              "PW",
              "PG",
              "PR",
              "WS",
              "SM",
              "ST",
              "SN",
              "SC",
              "SL",
              "SB",
              "KN",
              "LC",
              "VC",
              "SR",
              "TL",
              "TO",
              "TT",
              "TV",
              "VU",
              "AZ",
              "BN",
              "BI",
              "KH",
              "CM",
              "TD",
              "KM",
              "GQ",
              "SZ",
              "GA",
              "GN",
              "KG",
              "LA",
              "MO",
              "MR",
              "MN",
              "NP",
              "RW",
              "TG",
              "UZ",
              "ZW",
              "BJ",
              "MG",
              "MU",
              "MZ",
              "AO",
              "CI",
              "DJ",
              "ZM",
              "CD",
              "CG",
              "IQ",
              "LY",
              "TJ",
              "VE",
              "ET",
              "XK"
          ],
          "external_urls": {
              "spotify": "https://open.spotify.com/album/5CP84pfi4AFe95UTACFWrk"
          },
          "href": "https://api.spotify.com/v1/albums/5CP84pfi4AFe95UTACFWrk",
          "id": "5CP84pfi4AFe95UTACFWrk",
          "images": [
              {
                  "url": "https://i.scdn.co/image/ab67616d0000b27363ecdc2fc549275b51fbb9a7",
                  "height": 640,
                  "width": 640
              },
              {
                  "url": "https://i.scdn.co/image/ab67616d00001e0263ecdc2fc549275b51fbb9a7",
                  "height": 300,
                  "width": 300
              },
              {
                  "url": "https://i.scdn.co/image/ab67616d0000485163ecdc2fc549275b51fbb9a7",
                  "height": 64,
                  "width": 64
              }
          ],
          "name": "333",
          "release_date": "2024-09-09",
          "release_date_precision": "day",
          "type": "album",
          "uri": "spotify:album:5CP84pfi4AFe95UTACFWrk",
          "artists": [
              {
                  "external_urls": {
                      "spotify": "https://open.spotify.com/artist/5nP8x4uEFjAAmDzwOEc9b8"
                  },
                  "href": "https://api.spotify.com/v1/artists/5nP8x4uEFjAAmDzwOEc9b8",
                  "id": "5nP8x4uEFjAAmDzwOEc9b8",
                  "name": "Matuê",
                  "type": "artist",
                  "uri": "spotify:artist:5nP8x4uEFjAAmDzwOEc9b8"
              }
          ],
          "album_group": "album"
      },
      {
          "album_type": "album",
          "total_tracks": 7,
          "available_markets": [
              "AR",
              "AU",
              "AT",
              "BE",
              "BO",
              "BR",
              "BG",
              "CA",
              "CL",
              "CO",
              "CR",
              "CY",
              "CZ",
              "DK",
              "DO",
              "DE",
              "EC",
              "EE",
              "SV",
              "FI",
              "FR",
              "GR",
              "GT",
              "HN",
              "HK",
              "HU",
              "IS",
              "IE",
              "IT",
              "LV",
              "LT",
              "LU",
              "MY",
              "MT",
              "MX",
              "NL",
              "NZ",
              "NI",
              "NO",
              "PA",
              "PY",
              "PE",
              "PH",
              "PL",
              "PT",
              "SG",
              "SK",
              "ES",
              "SE",
              "CH",
              "TW",
              "TR",
              "UY",
              "US",
              "GB",
              "AD",
              "LI",
              "MC",
              "ID",
              "JP",
              "TH",
              "VN",
              "RO",
              "IL",
              "ZA",
              "SA",
              "AE",
              "BH",
              "QA",
              "OM",
              "KW",
              "EG",
              "MA",
              "DZ",
              "TN",
              "LB",
              "JO",
              "PS",
              "IN",
              "BY",
              "KZ",
              "MD",
              "UA",
              "AL",
              "BA",
              "HR",
              "ME",
              "MK",
              "RS",
              "SI",
              "KR",
              "BD",
              "PK",
              "LK",
              "GH",
              "KE",
              "NG",
              "TZ",
              "UG",
              "AG",
              "AM",
              "BS",
              "BB",
              "BZ",
              "BT",
              "BW",
              "BF",
              "CV",
              "CW",
              "DM",
              "FJ",
              "GM",
              "GE",
              "GD",
              "GW",
              "GY",
              "HT",
              "JM",
              "KI",
              "LS",
              "LR",
              "MW",
              "MV",
              "ML",
              "MH",
              "FM",
              "NA",
              "NR",
              "NE",
              "PW",
              "PG",
              "PR",
              "WS",
              "SM",
              "ST",
              "SN",
              "SC",
              "SL",
              "SB",
              "KN",
              "LC",
              "VC",
              "SR",
              "TL",
              "TO",
              "TT",
              "TV",
              "VU",
              "AZ",
              "BN",
              "BI",
              "KH",
              "CM",
              "TD",
              "KM",
              "GQ",
              "SZ",
              "GA",
              "GN",
              "KG",
              "LA",
              "MO",
              "MR",
              "MN",
              "NP",
              "RW",
              "TG",
              "UZ",
              "ZW",
              "BJ",
              "MG",
              "MU",
              "MZ",
              "AO",
              "CI",
              "DJ",
              "ZM",
              "CD",
              "CG",
              "IQ",
              "LY",
              "TJ",
              "VE",
              "ET",
              "XK"
          ],
          "external_urls": {
              "spotify": "https://open.spotify.com/album/6ehm0SMBBoSxH8oSrFXre6"
          },
          "href": "https://api.spotify.com/v1/albums/6ehm0SMBBoSxH8oSrFXre6",
          "id": "6ehm0SMBBoSxH8oSrFXre6",
          "images": [
              {
                  "url": "https://i.scdn.co/image/ab67616d0000b273eaf3178d5ebb408fab56f6b8",
                  "height": 640,
                  "width": 640
              },
              {
                  "url": "https://i.scdn.co/image/ab67616d00001e02eaf3178d5ebb408fab56f6b8",
                  "height": 300,
                  "width": 300
              },
              {
                  "url": "https://i.scdn.co/image/ab67616d00004851eaf3178d5ebb408fab56f6b8",
                  "height": 64,
                  "width": 64
              }
          ],
          "name": "Máquina do Tempo",
          "release_date": "2020-09-10",
          "release_date_precision": "day",
          "type": "album",
          "uri": "spotify:album:6ehm0SMBBoSxH8oSrFXre6",
          "artists": [
              {
                  "external_urls": {
                      "spotify": "https://open.spotify.com/artist/5nP8x4uEFjAAmDzwOEc9b8"
                  },
                  "href": "https://api.spotify.com/v1/artists/5nP8x4uEFjAAmDzwOEc9b8",
                  "id": "5nP8x4uEFjAAmDzwOEc9b8",
                  "name": "Matuê",
                  "type": "artist",
                  "uri": "spotify:artist:5nP8x4uEFjAAmDzwOEc9b8"
              }
          ],
          "album_group": "album"
      },
      {
          "album_type": "single",
          "total_tracks": 1,
          "available_markets": [
              "AR",
              "AU",
              "AT",
              "BE",
              "BO",
              "BR",
              "BG",
              "CA",
              "CL",
              "CO",
              "CR",
              "CY",
              "CZ",
              "DK",
              "DO",
              "DE",
              "EC",
              "EE",
              "SV",
              "FI",
              "FR",
              "GR",
              "GT",
              "HN",
              "HK",
              "HU",
              "IS",
              "IE",
              "IT",
              "LV",
              "LT",
              "LU",
              "MY",
              "MT",
              "MX",
              "NL",
              "NZ",
              "NI",
              "NO",
              "PA",
              "PY",
              "PE",
              "PH",
              "PL",
              "PT",
              "SG",
              "SK",
              "ES",
              "SE",
              "CH",
              "TW",
              "TR",
              "UY",
              "US",
              "GB",
              "AD",
              "LI",
              "MC",
              "ID",
              "JP",
              "TH",
              "VN",
              "RO",
              "IL",
              "ZA",
              "SA",
              "AE",
              "BH",
              "QA",
              "OM",
              "KW",
              "EG",
              "MA",
              "DZ",
              "TN",
              "LB",
              "JO",
              "PS",
              "IN",
              "KZ",
              "MD",
              "UA",
              "AL",
              "BA",
              "HR",
              "ME",
              "MK",
              "RS",
              "SI",
              "KR",
              "BD",
              "PK",
              "LK",
              "GH",
              "KE",
              "NG",
              "TZ",
              "UG",
              "AG",
              "AM",
              "BS",
              "BB",
              "BZ",
              "BT",
              "BW",
              "BF",
              "CV",
              "CW",
              "DM",
              "FJ",
              "GM",
              "GE",
              "GD",
              "GW",
              "GY",
              "HT",
              "JM",
              "KI",
              "LS",
              "LR",
              "MW",
              "MV",
              "ML",
              "MH",
              "FM",
              "NA",
              "NR",
              "NE",
              "PW",
              "PG",
              "PR",
              "WS",
              "SM",
              "ST",
              "SN",
              "SC",
              "SL",
              "SB",
              "KN",
              "LC",
              "VC",
              "SR",
              "TL",
              "TO",
              "TT",
              "TV",
              "VU",
              "AZ",
              "BN",
              "BI",
              "KH",
              "CM",
              "TD",
              "KM",
              "GQ",
              "SZ",
              "GA",
              "GN",
              "KG",
              "LA",
              "MO",
              "MR",
              "MN",
              "NP",
              "RW",
              "TG",
              "UZ",
              "ZW",
              "BJ",
              "MG",
              "MU",
              "MZ",
              "AO",
              "CI",
              "DJ",
              "ZM",
              "CD",
              "CG",
              "IQ",
              "LY",
              "TJ",
              "VE",
              "ET",
              "XK"
          ],
          "external_urls": {
              "spotify": "https://open.spotify.com/album/5sJnezbd1ZkFKw5uQjkbZC"
          },
          "href": "https://api.spotify.com/v1/albums/5sJnezbd1ZkFKw5uQjkbZC",
          "id": "5sJnezbd1ZkFKw5uQjkbZC",
          "images": [
              {
                  "url": "https://i.scdn.co/image/ab67616d0000b273e54ff3b86341403015c23745",
                  "height": 640,
                  "width": 640
              },
              {
                  "url": "https://i.scdn.co/image/ab67616d00001e02e54ff3b86341403015c23745",
                  "height": 300,
                  "width": 300
              },
              {
                  "url": "https://i.scdn.co/image/ab67616d00004851e54ff3b86341403015c23745",
                  "height": 64,
                  "width": 64
              }
          ],
          "name": "ESPAÇONAVE",
          "release_date": "2024-10-22",
          "release_date_precision": "day",
          "type": "album",
          "uri": "spotify:album:5sJnezbd1ZkFKw5uQjkbZC",
          "artists": [
              {
                  "external_urls": {
                      "spotify": "https://open.spotify.com/artist/2KwQkyJzT9r6Hh56jtfuse"
                  },
                  "href": "https://api.spotify.com/v1/artists/2KwQkyJzT9r6Hh56jtfuse",
                  "id": "2KwQkyJzT9r6Hh56jtfuse",
                  "name": "Brandão85",
                  "type": "artist",
                  "uri": "spotify:artist:2KwQkyJzT9r6Hh56jtfuse"
              },
              {
                  "external_urls": {
                      "spotify": "https://open.spotify.com/artist/3MrDVzg7ZXaYMyQmbDInr7"
                  },
                  "href": "https://api.spotify.com/v1/artists/3MrDVzg7ZXaYMyQmbDInr7",
                  "id": "3MrDVzg7ZXaYMyQmbDInr7",
                  "name": "WIU",
                  "type": "artist",
                  "uri": "spotify:artist:3MrDVzg7ZXaYMyQmbDInr7"
              },
              {
                  "external_urls": {
                      "spotify": "https://open.spotify.com/artist/5nP8x4uEFjAAmDzwOEc9b8"
                  },
                  "href": "https://api.spotify.com/v1/artists/5nP8x4uEFjAAmDzwOEc9b8",
                  "id": "5nP8x4uEFjAAmDzwOEc9b8",
                  "name": "Matuê",
                  "type": "artist",
                  "uri": "spotify:artist:5nP8x4uEFjAAmDzwOEc9b8"
              }
          ],
          "album_group": "single"
      },
      {
          "album_type": "single",
          "total_tracks": 3,
          "available_markets": [
              "AR",
              "AU",
              "AT",
              "BE",
              "BO",
              "BR",
              "BG",
              "CA",
              "CL",
              "CO",
              "CR",
              "CY",
              "CZ",
              "DK",
              "DO",
              "DE",
              "EC",
              "EE",
              "SV",
              "FI",
              "FR",
              "GR",
              "GT",
              "HN",
              "HK",
              "HU",
              "IS",
              "IE",
              "IT",
              "LV",
              "LT",
              "LU",
              "MY",
              "MT",
              "MX",
              "NL",
              "NZ",
              "NI",
              "NO",
              "PA",
              "PY",
              "PE",
              "PH",
              "PL",
              "PT",
              "SG",
              "SK",
              "ES",
              "SE",
              "CH",
              "TW",
              "TR",
              "UY",
              "US",
              "GB",
              "AD",
              "LI",
              "MC",
              "ID",
              "JP",
              "TH",
              "VN",
              "RO",
              "IL",
              "ZA",
              "SA",
              "AE",
              "BH",
              "QA",
              "OM",
              "KW",
              "EG",
              "MA",
              "DZ",
              "TN",
              "LB",
              "JO",
              "PS",
              "IN",
              "BY",
              "KZ",
              "MD",
              "UA",
              "AL",
              "BA",
              "HR",
              "ME",
              "MK",
              "RS",
              "SI",
              "KR",
              "BD",
              "PK",
              "LK",
              "GH",
              "KE",
              "NG",
              "TZ",
              "UG",
              "AG",
              "AM",
              "BS",
              "BB",
              "BZ",
              "BT",
              "BW",
              "BF",
              "CV",
              "CW",
              "DM",
              "FJ",
              "GM",
              "GE",
              "GD",
              "GW",
              "GY",
              "HT",
              "JM",
              "KI",
              "LS",
              "LR",
              "MW",
              "MV",
              "ML",
              "MH",
              "FM",
              "NA",
              "NR",
              "NE",
              "PW",
              "PG",
              "PR",
              "WS",
              "SM",
              "ST",
              "SN",
              "SC",
              "SL",
              "SB",
              "KN",
              "LC",
              "VC",
              "SR",
              "TL",
              "TO",
              "TT",
              "TV",
              "VU",
              "AZ",
              "BN",
              "BI",
              "KH",
              "CM",
              "TD",
              "KM",
              "GQ",
              "SZ",
              "GA",
              "GN",
              "KG",
              "LA",
              "MO",
              "MR",
              "MN",
              "NP",
              "RW",
              "TG",
              "UZ",
              "ZW",
              "BJ",
              "MG",
              "MU",
              "MZ",
              "AO",
              "CI",
              "DJ",
              "ZM",
              "CD",
              "CG",
              "IQ",
              "LY",
              "TJ",
              "VE",
              "ET",
              "XK"
          ],
          "external_urls": {
              "spotify": "https://open.spotify.com/album/1rTbSeEJ9D8doCj60u7RmG"
          },
          "href": "https://api.spotify.com/v1/albums/1rTbSeEJ9D8doCj60u7RmG",
          "id": "1rTbSeEJ9D8doCj60u7RmG",
          "images": [
              {
                  "url": "https://i.scdn.co/image/ab67616d0000b27353cdbeaef025380e8659f68b",
                  "height": 640,
                  "width": 640
              },
              {
                  "url": "https://i.scdn.co/image/ab67616d00001e0253cdbeaef025380e8659f68b",
                  "height": 300,
                  "width": 300
              },
              {
                  "url": "https://i.scdn.co/image/ab67616d0000485153cdbeaef025380e8659f68b",
                  "height": 64,
                  "width": 64
              }
          ],
          "name": "Sabor Overdose no Yakisoba",
          "release_date": "2024-08-05",
          "release_date_precision": "day",
          "type": "album",
          "uri": "spotify:album:1rTbSeEJ9D8doCj60u7RmG",
          "artists": [
              {
                  "external_urls": {
                      "spotify": "https://open.spotify.com/artist/5nP8x4uEFjAAmDzwOEc9b8"
                  },
                  "href": "https://api.spotify.com/v1/artists/5nP8x4uEFjAAmDzwOEc9b8",
                  "id": "5nP8x4uEFjAAmDzwOEc9b8",
                  "name": "Matuê",
                  "type": "artist",
                  "uri": "spotify:artist:5nP8x4uEFjAAmDzwOEc9b8"
              }
          ],
          "album_group": "single"
      },
      {
          "album_type": "single",
          "total_tracks": 1,
          "available_markets": [
              "AR",
              "AU",
              "AT",
              "BE",
              "BO",
              "BR",
              "BG",
              "CA",
              "CL",
              "CO",
              "CR",
              "CY",
              "CZ",
              "DK",
              "DO",
              "DE",
              "EC",
              "EE",
              "SV",
              "FI",
              "FR",
              "GR",
              "GT",
              "HN",
              "HK",
              "HU",
              "IS",
              "IE",
              "IT",
              "LV",
              "LT",
              "LU",
              "MY",
              "MT",
              "MX",
              "NL",
              "NZ",
              "NI",
              "NO",
              "PA",
              "PY",
              "PE",
              "PH",
              "PL",
              "PT",
              "SG",
              "SK",
              "ES",
              "SE",
              "CH",
              "TW",
              "TR",
              "UY",
              "US",
              "GB",
              "AD",
              "LI",
              "MC",
              "ID",
              "JP",
              "TH",
              "VN",
              "RO",
              "IL",
              "ZA",
              "SA",
              "AE",
              "BH",
              "QA",
              "OM",
              "KW",
              "EG",
              "MA",
              "DZ",
              "TN",
              "LB",
              "JO",
              "PS",
              "IN",
              "BY",
              "KZ",
              "MD",
              "UA",
              "AL",
              "BA",
              "HR",
              "ME",
              "MK",
              "RS",
              "SI",
              "KR",
              "BD",
              "PK",
              "LK",
              "GH",
              "KE",
              "NG",
              "TZ",
              "UG",
              "AG",
              "AM",
              "BS",
              "BB",
              "BZ",
              "BT",
              "BW",
              "BF",
              "CV",
              "CW",
              "DM",
              "FJ",
              "GM",
              "GE",
              "GD",
              "GW",
              "GY",
              "HT",
              "JM",
              "KI",
              "LS",
              "LR",
              "MW",
              "MV",
              "ML",
              "MH",
              "FM",
              "NA",
              "NR",
              "NE",
              "PW",
              "PG",
              "PR",
              "WS",
              "SM",
              "ST",
              "SN",
              "SC",
              "SL",
              "SB",
              "KN",
              "LC",
              "VC",
              "SR",
              "TL",
              "TO",
              "TT",
              "TV",
              "VU",
              "AZ",
              "BN",
              "BI",
              "KH",
              "CM",
              "TD",
              "KM",
              "GQ",
              "SZ",
              "GA",
              "GN",
              "KG",
              "LA",
              "MO",
              "MR",
              "MN",
              "NP",
              "RW",
              "TG",
              "UZ",
              "ZW",
              "BJ",
              "MG",
              "MU",
              "MZ",
              "AO",
              "CI",
              "DJ",
              "ZM",
              "CD",
              "CG",
              "IQ",
              "LY",
              "TJ",
              "VE",
              "ET",
              "XK"
          ],
          "external_urls": {
              "spotify": "https://open.spotify.com/album/44ZcMGMb1ZJ1pNNJQ0MXC5"
          },
          "href": "https://api.spotify.com/v1/albums/44ZcMGMb1ZJ1pNNJQ0MXC5",
          "id": "44ZcMGMb1ZJ1pNNJQ0MXC5",
          "images": [
              {
                  "url": "https://i.scdn.co/image/ab67616d0000b2733dcb58e953d75cc1e9824d55",
                  "height": 640,
                  "width": 640
              },
              {
                  "url": "https://i.scdn.co/image/ab67616d00001e023dcb58e953d75cc1e9824d55",
                  "height": 300,
                  "width": 300
              },
              {
                  "url": "https://i.scdn.co/image/ab67616d000048513dcb58e953d75cc1e9824d55",
                  "height": 64,
                  "width": 64
              }
          ],
          "name": "Reza do Milhão",
          "release_date": "2024-08-04",
          "release_date_precision": "day",
          "type": "album",
          "uri": "spotify:album:44ZcMGMb1ZJ1pNNJQ0MXC5",
          "artists": [
              {
                  "external_urls": {
                      "spotify": "https://open.spotify.com/artist/5nP8x4uEFjAAmDzwOEc9b8"
                  },
                  "href": "https://api.spotify.com/v1/artists/5nP8x4uEFjAAmDzwOEc9b8",
                  "id": "5nP8x4uEFjAAmDzwOEc9b8",
                  "name": "Matuê",
                  "type": "artist",
                  "uri": "spotify:artist:5nP8x4uEFjAAmDzwOEc9b8"
              }
          ],
          "album_group": "single"
      }
  ]
}
