{
  "items": [
      {
          "external_urls": {
              "spotify": "https://open.spotify.com/artist/5nP8x4uEFjAAmDzwOEc9b8"
          },
          "followers": {
              "href": null,
              "total": 11862083
          },
          "genres": [
              "r&b brasileiro",
              "rap cearense",
              "trap brasileiro"
          ],
          "href": "https://api.spotify.com/v1/artists/5nP8x4uEFjAAmDzwOEc9b8",
          "id": "5nP8x4uEFjAAmDzwOEc9b8",
          "images": [
              {
                  "height": 640,
                  "url": "https://i.scdn.co/image/ab6761610000e5eb654dc6b69f86aeb73527fc07",
                  "width": 640
              },
              {
                  "height": 320,
                  "url": "https://i.scdn.co/image/ab67616100005174654dc6b69f86aeb73527fc07",
                  "width": 320
              },
              {
                  "height": 160,
                  "url": "https://i.scdn.co/image/ab6761610000f178654dc6b69f86aeb73527fc07",
                  "width": 160
              }
          ],
          "name": "Matuê",
          "popularity": 81,
          "type": "artist",
          "uri": "spotify:artist:5nP8x4uEFjAAmDzwOEc9b8"
      },
      {
          "external_urls": {
              "spotify": "https://open.spotify.com/artist/1on7ZQ2pvgeQF4vmIA09x5"
          },
          "followers": {
              "href": null,
              "total": 7839810
          },
          "genres": [
              "brazilian rock",
              "hard rock brasileiro",
              "rock alternativo brasileiro",
              "rock nacional brasileiro"
          ],
          "href": "https://api.spotify.com/v1/artists/1on7ZQ2pvgeQF4vmIA09x5",
          "id": "1on7ZQ2pvgeQF4vmIA09x5",
          "images": [
              {
                  "height": 640,
                  "url": "https://i.scdn.co/image/ab6761610000e5eb67bc48f32d1cc16497865361",
                  "width": 640
              },
              {
                  "height": 320,
                  "url": "https://i.scdn.co/image/ab6761610000517467bc48f32d1cc16497865361",
                  "width": 320
              },
              {
                  "height": 160,
                  "url": "https://i.scdn.co/image/ab6761610000f17867bc48f32d1cc16497865361",
                  "width": 160
              }
          ],
          "name": "Charlie Brown Jr.",
          "popularity": 77,
          "type": "artist",
          "uri": "spotify:artist:1on7ZQ2pvgeQF4vmIA09x5"
      },
      {
          "external_urls": {
              "spotify": "https://open.spotify.com/artist/0pcoadNMmvrUyab1RxWBoV"
          },
          "followers": {
              "href": null,
              "total": 7046519
          },
          "genres": [
              "funk carioca",
              "funk consciente",
              "funk paulista"
          ],
          "href": "https://api.spotify.com/v1/artists/0pcoadNMmvrUyab1RxWBoV",
          "id": "0pcoadNMmvrUyab1RxWBoV",
          "images": [
              {
                  "height": 640,
                  "url": "https://i.scdn.co/image/ab6761610000e5ebdc3804a7a276c52541a7e7bb",
                  "width": 640
              },
              {
                  "height": 320,
                  "url": "https://i.scdn.co/image/ab67616100005174dc3804a7a276c52541a7e7bb",
                  "width": 320
              },
              {
                  "height": 160,
                  "url": "https://i.scdn.co/image/ab6761610000f178dc3804a7a276c52541a7e7bb",
                  "width": 160
              }
          ],
          "name": "MC Hariel",
          "popularity": 76,
          "type": "artist",
          "uri": "spotify:artist:0pcoadNMmvrUyab1RxWBoV"
      },
      {
          "external_urls": {
              "spotify": "https://open.spotify.com/artist/7gJN8W0589FisSYJS17K54"
          },
          "followers": {
              "href": null,
              "total": 7570507
          },
          "genres": [
              "pop rap brasileiro"
          ],
          "href": "https://api.spotify.com/v1/artists/7gJN8W0589FisSYJS17K54",
          "id": "7gJN8W0589FisSYJS17K54",
          "images": [
              {
                  "height": 640,
                  "url": "https://i.scdn.co/image/ab6761610000e5eb6604240537d81fe74ec0cf3e",
                  "width": 640
              },
              {
                  "height": 320,
                  "url": "https://i.scdn.co/image/ab676161000051746604240537d81fe74ec0cf3e",
                  "width": 320
              },
              {
                  "height": 160,
                  "url": "https://i.scdn.co/image/ab6761610000f1786604240537d81fe74ec0cf3e",
                  "width": 160
              }
          ],
          "name": "Filipe Ret",
          "popularity": 81,
          "type": "artist",
          "uri": "spotify:artist:7gJN8W0589FisSYJS17K54"
      },
      {
          "external_urls": {
              "spotify": "https://open.spotify.com/artist/1Xyo4u8uXC1ZmMpatF05PJ"
          },
          "followers": {
              "href": null,
              "total": 97247713
          },
          "genres": [
              "canadian contemporary r&b",
              "canadian pop",
              "pop"
          ],
          "href": "https://api.spotify.com/v1/artists/1Xyo4u8uXC1ZmMpatF05PJ",
          "id": "1Xyo4u8uXC1ZmMpatF05PJ",
          "images": [
              {
                  "height": 640,
                  "url": "https://i.scdn.co/image/ab6761610000e5eb9e528993a2820267b97f6aae",
                  "width": 640
              },
              {
                  "height": 320,
                  "url": "https://i.scdn.co/image/ab676161000051749e528993a2820267b97f6aae",
                  "width": 320
              },
              {
                  "height": 160,
                  "url": "https://i.scdn.co/image/ab6761610000f1789e528993a2820267b97f6aae",
                  "width": 160
              }
          ],
          "name": "The Weeknd",
          "popularity": 97,
          "type": "artist",
          "uri": "spotify:artist:1Xyo4u8uXC1ZmMpatF05PJ"
      }
  ],
  "total": 187,
  "limit": 5,
  "offset": 0,
  "href": "https://api.spotify.com/v1/me/top/artists?offset=0&limit=5&locale=en-US,en;q%3D0.9,pt-BR;q%3D0.8,pt;q%3D0.7",
  "next": "https://api.spotify.com/v1/me/top/artists?offset=5&limit=5&locale=en-US,en;q%3D0.9,pt-BR;q%3D0.8,pt;q%3D0.7",
  "previous": null
}
